/Users/spartalex/auto/webui082022/src/test/java/ru/gb/lesson6/BuyTShirtTest.java
/Users/spartalex/auto/webui082022/src/test/java/ru/gb/hw4/TrianleTest.java
/Users/spartalex/auto/webui082022/src/test/java/ru/gb/lesson4/FunctionsTest.java
/Users/spartalex/auto/webui082022/src/test/java/ru/gb/lesson4/BoxTest.java
/Users/spartalex/auto/webui082022/src/test/java/ru/gb/lesson5/AfishaTest.java
/Users/spartalex/auto/webui082022/src/test/java/ru/gb/lesson5/ActionsTest.java
/Users/spartalex/auto/webui082022/src/test/java/ru/gb/lesson4/AssertJExamplesTest.java
